Creating a better universe with dverse – pharmaverse blog
…
admiralverse <- c(
  "admiral",
  "admiraldev",
  "admiralonco",
  "admiralophtha",
  "admiralpeds",
  "admiralvaccine"
)
# For example: https://pharmaverse.github.io/admiral/reference/queries.html
template <- "https://pharmaverse.github.io/{package}/reference/{topic}.html"

docs <- dverse::document_universe(admiralverse, template)
docs
## # A tibble: 383 × 7
##    topic                               alias title concept type  keyword package
##    <chr>                               <chr> <chr> <chr>   <chr> <chr>   <chr>  
##  1 <a href=https://pharmaverse.github… %>%   Pipe… reexpo… help  <NA>    admiral
##  2 <a href=https://pharmaverse.github… %not… Nega… dev_ut… help  <NA>    admira…
##  3 <a href=https://pharmaverse.github… %or%  Or    deprec… help  <NA>    admira…
##  4 <a href=https://pharmaverse.github… adab  Crea… <NA>    vign… <NA>    admiral
##  5 <a href=https://pharmaverse.github… adbc… Crea… <NA>    vign… <NA>    admira…
##  6 <a href=https://pharmaverse.github… adce  Crea… <NA>    vign… <NA>    admira…
##  7 <a href=https://pharmaverse.github… add_… Add … quo     help  <NA>    admira…
##  8 <a href=https://pharmaverse.github… adfa… Crea… <NA>    vign… <NA>    admira…
##  9 <a href=https://pharmaverse.github… adis  Crea… <NA>    vign… <NA>    admira…
## 10 <a href=https://pharmaverse.github… adju… Adju… <NA>    help  intern… admiral
## # ℹ 373 more rows

You may need to exclude some topics, such as reexported objects from other packages. Because topics outside your universe yield broken links, you can exclude them with dverse::is_online().

docs |> filter(!dverse::is_online(topic))
## # A tibble: 36 × 7
##    topic                               alias title concept type  keyword package
##    <chr>                               <chr> <chr> <chr>   <chr> <chr>   <chr>  
##  1 <a href=https://pharmaverse.github… %>%   Pipe… reexpo… help  <NA>    admiral
##  2 <a href=https://pharmaverse.github… %not… Nega… dev_ut… help  <NA>    admira…
##  3 <a href=https://pharmaverse.github… %or%  Or    deprec… help  <NA>    admira…
##  4 <a href=https://pharmaverse.github… adab  Crea… <NA>    vign… <NA>    admiral
##  5 <a href=https://pharmaverse.github… adju… Adju… <NA>    help  intern… admiral
##  6 <a href=https://pharmaverse.github… adrs… Crea… <NA>    vign… <NA>    admira…
##  7 <a href=https://pharmaverse.github… asse… Asse… <NA>    help  intern… admiral
##  8 <a href=https://pharmaverse.github… asse… Chec… <NA>    help  intern… admiral
##  9 <a href=https://pharmaverse.github… asse… Asse… <NA>    help  intern… admiral
## 10 <a href=https://pharmaverse.github… asse… Asse… <NA>    help  intern… admiral
## # ℹ 26 more rows
…
