The Tension of High-Performance Computing: Reproducibility vs. Parallelization – pharmaverse blog
…
results <- m[] |> bind_rows()

x <- mirai::daemons(0, dispatcher = "none")

results %>%
  group_by(patient_id) %>%
  summarise(
    mean_efficacy = mean(efficacy),
    sd_efficacy = sd(efficacy)
  )

# A tibble: 1,000 × 3
   patient_id mean_efficacy sd_efficacy
        <int>         <dbl>       <dbl>
 1          1         0.630      0.0594
 2          2         0.794      0.0305
 3          3         0.719      0.175 
 4          4         0.724      0.183 
 5          5         0.779      0.0552
 6          6         0.631      0.0531
 7          7         0.842      0.157 
 8          8         0.555      0.141 
 9          9         0.652      0.107 
10         10         0.714      0.0461
# ℹ 990 more rows
…
