How I Rebuilt a Lost ECG Data Script in R – pharmaverse blog
…
data("vs")
set.seed(123)

Extracting Unique Date/Time of Measurements

Next, I extracted the unique combination of subject IDs, visit names, and visit dates from the vs dataset.

egdtc <- vs %>%
  select(USUBJID, VISIT, VSDTC) %>%
  distinct() %>%
  rename(EGDTC = VSDTC)

egdtc

# A tibble: 2,741 × 3
   USUBJID     VISIT               EGDTC     
   <chr>       <chr>               <chr>     
 1 01-701-1015 SCREENING 1         2013-12-26
 2 01-701-1015 SCREENING 2         2013-12-31
 3 01-701-1015 BASELINE            2014-01-02
 4 01-701-1015 AMBUL ECG PLACEMENT 2014-01-14
 5 01-701-1015 WEEK 2              2014-01-16
 6 01-701-1015 WEEK 4              2014-01-30
 7 01-701-1015 AMBUL ECG REMOVAL   2014-02-01
 8 01-701-1015 WEEK 6              2014-02-12
 9 01-701-1015 WEEK 8              2014-03-05
10 01-701-1015 WEEK 12             2014-03-26
# ℹ 2,731 more rows
…
